139.162.16.133
172.104.174.163
172.105.112.186
139.162.23.161
139.162.7.183
139.162.10.211
172.104.162.67
139.162.35.12
172.104.188.198
139.162.30.239
172.104.173.31
45.118.133.110
139.162.51.94
172.104.176.100